{
 "chassis_type": 65,
 "chassis_base_mac": {
  "mac_address": "AAAAAAAA"
 },
 "chassis_serial_number": "",
 "is_active": true,
 "card_details": [],
 "cpm_slot_by_letter": "A",
 "is_singleru": true
}
