{
 "slot_num": 1,
 "card_type": 127,
 "mda_type": 36,
 "base_mac": {
  "mac_address": "AAEFAAAA"
 },
 "mac_count": 0,
 "chassis_type": 42,
 "card_deviation": 0,
 "is_combined_system": true,
 "active_cpm_slot_num": 16,
 "version": 1,
 "card_mfg_assembly": ""
}
